DOMAIN,VERSION,REMOVED
"com",0,-
"org",0,-
"net",0,-
"int",0,-
"edu",0,-
"gov",0,-
"mil",0,-
"arpa",0,-
"academy",0,-
"accountant",0,-
"accountants",0,-
"aero",0,-
"africa",0,-
"agency",0,-
"app",0,-
"art",0,-
"associates",0,-
"audio",0,-
"auto",0,-
"baby",0,-
"bank",0,-
"bar",0,-
"bargains",0,-
"best",0,-
"bid",0,-
"bike",0,-
"biz",0,-
"blackfriday",0,-
"blog",0,-
"boston",0,-
"bot",0,-
"builders",0,-
"cam",0,-
"car",0,-
"cards",0,-
"cars",0,-
"center",0,-
"cern",0,-
"cheap",0,-
"click",0,-
"codes",0,-
"data",0,-
"date",0,-
"dating",0,-
"dev",0,-
"diet",0,-
"diy",0,-
"dog",0,-
"dot",0,-
"eco",0,-
"email",0,-
"fan",0,-
"fans",0,-
"farm",0,-
"fit",0,-
"foo",0,-
"fun",0,-
"fyi",0,-
"game",0,-
"gdn",0,-
"gift",0,-
"guru",0,-
"hair",0,-
"help",0,-
"here",0,-
"host",0,-
"how",0,-
"ice",0,-
"icu",0,-
"inc",0,-
"info",0,-
"ink",0,-
"jobs",0,-
"kim",0,-
"land",0,-
"lat",0,-
"life",0,-
"like",0,-
"link",0,-
"live",0,-
"loan",0,-
"lol",0,-
"market",0,-
"med",0,-
"meet",0,-
"menu",0,-
"mobi",0,-
"mom",0,-
"mov",0,-
"name",0,-
"navy",0,-
"network",0,-
"new",0,-
"now",0,-
"one",0,-
"ong",0,-
"oni",0,-
"online",0,-
"ooo",0,-
"open",0,-
"page",0,-
"party",0,-
"pay",0,-
"pet",0,-
"photo",0,-
"pics",0,-
"pink",0,-
"pin",0,-
"pid",0,-
"racing",0,-
"read",0,-
"red",0,-
"rest",0,-
"rich",0,-
"review",0,-
"room",0,-
"safe",0,-
"sale",0,-
"sbi",0,-
"spa",0,-
"store",0,-
"talk",0,-
"tax",0,-
"tech",0,-
"tel",0,-
"today",0,-
"top",0,-
"uno",0,-
"video",0,-
"vip",0,-
"voting",0,-
"website",0,-
"wiki",0,-
"win",0,-
"work",0,-
"world",0,-
"xyz",0,-
"you",0,-
"yoga",0,-
"zip",0,-