Name,GENC,ISO Alpha 2,ISO Alpha 3,ISO Numeric,Stanag,Internet,VERSION,REMOVED
Afghanistan,AFG,AF,AFG,4,AFG,.af,0,-
Akrotiri,XQZ,-,-,-,-,-,0,-
Albania,ALB,AL,ALB,8,ALB,.al,0,-
Algeria,DZA,DZ,DZA,12,DZA,.dz,0,-
American Samoa,ASM,AS,ASM,16,ASM,.as,0,-
Andorra,AND,AD,AND,20,AND,.ad,0,-
Angola,AGO,AO,AGO,24,AGO,.ao,0,-
Anguilla,AIA,AI,AIA,660,AIA,.ai,0,-
Antarctica,ATA,AQ,ATA,10,ATA,.aq,0,-
Antigua and Barbuda,ATG,AG,ATG,28,ATG,.ag,0,-
Argentina,ARG,AR,ARG,32,ARG,.ar,0,-
Armenia,ARM,AM,ARM,51,ARM,.am,0,-
Aruba,ABW,AW,ABW,533,ABW,.aw,0,-
Ashmore and Cartier Islands,XAC,-,-,-,AUS,-,0,-
Australia,AUS,AU,AUS,36,AUS,.au,0,-
Austria,AUT,AT,AUT,40,AUT,.at,0,-
Azerbaijan,AZE,AZ,AZE,31,AZE,.az,0,-
"Bahamas, The",BHS,BS,BHS,44,BHS,.bs,0,-
Bahrain,BHR,BH,BHR,48,BHR,.bh,0,-
Baker Island,XBK,-,-,-,UMI,-,0,-
Bangladesh,BGD,BD,BGD,50,BGD,.bd,0,-
Barbados,BRB,BB,BRB,52,BRB,.bb,0,-
Bassas da India,XBI,-,-,-,-,-,0,-
Belarus,BLR,BY,BLR,112,BLR,.by,0,-
Belgium,BEL,BE,BEL,56,BEL,.be,0,-
Belize,BLZ,BZ,BLZ,84,BLZ,.bz,0,-
Benin,BEN,BJ,BEN,204,BEN,.bj,0,-
Bermuda,BMU,BM,BMU,60,BMU,.bm,0,-
Bhutan,BTN,BT,BTN,64,BTN,.bt,0,-
Bolivia,BOL,BO,BOL,68,BOL,.bo,0,-
Bosnia and Herzegovina,BIH,BA,BIH,70,BIH,.ba,0,-
Botswana,BWA,BW,BWA,72,BWA,.bw,0,-
Bouvet Island,BVT,BV,BVT,74,BVT,.bv,0,-
Brazil,BRA,BR,BRA,76,BRA,.br,0,-
British Indian Ocean Territory,IOT,IO,IOT,86,IOT,.io,0,-
British Virgin Islands,VGB,VG,VGB,92,VGB,.vg,0,-
Brunei,BRN,BN,BRN,96,BRN,.bn,0,-
Bulgaria,BGR,BG,BGR,100,BGR,.bg,0,-
Burkina Faso,BFA,BF,BFA,854,BFA,.bf,0,-
Burma,MMR,MM,MMR,104,MMR,.mm,0,-
Burundi,BDI,BI,BDI,108,BDI,.bi,0,-
Cabo Verde,CPV,CV,CPV,132,CPV,.cv,0,-
Cambodia,KHM,KH,KHM,116,KHM,.kh,0,-
Cameroon,CMR,CM,CMR,120,CMR,.cm,0,-
Canada,CAN,CA,CAN,124,CAN,.ca,0,-
Cayman Islands,CYM,KY,CYM,136,CYM,.ky,0,-
Central African Republic,CAF,CF,CAF,140,CAF,.cf,0,-
Chad,TCD,TD,TCD,148,TCD,.td,0,-
Chile,CHL,CL,CHL,152,CHL,.cl,0,-
China,CHN,CN,CHN,156,CHN,.cn,0,-
Christmas Island,CXR,CX,CXR,162,CXR,.cx,0,-
Clipperton Island,CPT,-,-,-,FYP,-,0,-
Cocos (Keeling) Islands,CCK,CC,CCK,166,AUS,.cc,0,-
Colombia,COL,CO,COL,170,COL,.co,0,-
Comoros,COM,KM,COM,174,COM,.km,0,-
"Congo, Democratic Republic of the",COD,CD,COD,180,COD,.cd,0,-
"Congo, Republic of the",COG,CG,COG,178,COG,.cg,0,-
Cook Islands,COK,CK,COK,184,COK,.ck,0,-
Coral Sea Islands,XCS,-,-,-,AUS,-,0,-
Costa Rica,CRI,CR,CRI,188,CRI,.cr,0,-
Cote d'Ivoire,CIV,CI,CIV,384,CIV,.ci,0,-
Croatia,HRV,HR,HRV,191,HRV,.hr,0,-
Cuba,CUB,CU,CUB,192,CUB,.cu,0,-
Curacao,CUW,CW,CUW,531,-,.cw,0,-
Cyprus,CYP,CY,CYP,196,CYP,.cy,0,-
Czechia,CZE,CZ,CZE,203,CZE,.cz,0,-
Denmark,DNK,DK,DNK,208,DNK,.dk,0,-
Dhekelia,XXD,-,-,-,-,-,0,-
Djibouti,DJI,DJ,DJI,262,DJI,.dj,0,-
Dominica,DMA,DM,DMA,212,DMA,.dm,0,-
Dominican Republic,DOM,DO,DOM,214,DOM,.do,0,-
Ecuador,ECU,EC,ECU,218,ECU,.ec,0,-
Egypt,EGY,EG,EGY,818,EGY,.eg,0,-
El Salvador,SLV,SV,SLV,222,SLV,.sv,0,-
Equatorial Guinea,GNQ,GQ,GNQ,226,GNQ,.gq,0,-
Eritrea,ERI,ER,ERI,232,ERI,.er,0,-
Estonia,EST,EE,EST,233,EST,.ee,0,-
Eswatini,SWZ,SZ,SWZ,748,SWZ,.sz,0,-
Ethiopia,ETH,ET,ETH,231,ETH,.et,0,-
Europa Island,XEU,-,-,-,-,-,0,-
Falkland Islands (Islas Malvinas),FLK,FK,FLK,238,FLK,.fk,0,-
Faroe Islands,FRO,FO,FRO,234,FRO,.fo,0,-
Fiji,FJI,FJ,FJI,242,FJI,.fj,0,-
Finland,FIN,FI,FIN,246,FIN,.fi,0,-
France,FRA,FR,FRA,250,FRA,.fr,0,-
"France, Metropolitan",-,FX,FXX,249,-,.fx,0,-
French Guiana,GUF,GF,GUF,254,GUF,.gf,0,-
French Polynesia,PYF,PF,PYF,258,PYF,.pf,0,-
French Southern and Antarctic Lands,ATF,TF,ATF,260,ATF,.tf,0,-
Gabon,GAB,GA,GAB,266,GAB,.ga,0,-
"Gambia, The",GMB,GM,GMB,270,GMB,.gm,0,-
Gaza Strip,XGZ,PS,PSE,275,PSE,.ps,0,-
Georgia,GEO,GE,GEO,268,GEO,.ge,0,-
Germany,DEU,DE,DEU,276,DEU,.de,0,-
Ghana,GHA,GH,GHA,288,GHA,.gh,0,-
Gibraltar,GIB,GI,GIB,292,GIB,.gi,0,-
Glorioso Islands,XGL,-,-,-,-,-,0,-
Greece,GRC,GR,GRC,300,GRC,.gr,0,-
Greenland,GRL,GL,GRL,304,GRL,.gl,0,-
Grenada,GRD,GD,GRD,308,GRD,.gd,0,-
Guadeloupe,GLP,GP,GLP,312,GLP,.gp,0,-
Guam,GUM,GU,GUM,316,GUM,.gu,0,-
Guatemala,GTM,GT,GTM,320,GTM,.gt,0,-
Guernsey,GGY,GG,GGY,831,UK,.gg,0,-
Guinea,GIN,GN,GIN,324,GIN,.gn,0,-
Guinea-Bissau,GNB,GW,GNB,624,GNB,.gw,0,-
Guyana,GUY,GY,GUY,328,GUY,.gy,0,-
Haiti,HTI,HT,HTI,332,HTI,.ht,0,-
Heard Island and McDonald Islands,HMD,HM,HMD,334,HMD,.hm,0,-
Holy See (Vatican City),VAT,VA,VAT,336,VAT,.va,0,-
Honduras,HND,HN,HND,340,HND,.hn,0,-
Hong Kong,HKG,HK,HKG,344,HKG,.hk,0,-
Howland Island,XHO,-,-,-,UMI,-,0,-
Hungary,HUN,HU,HUN,348,HUN,.hu,0,-
Iceland,ISL,IS,ISL,352,ISL,.is,0,-
India,IND,IN,IND,356,IND,.in,0,-
Indonesia,IDN,ID,IDN,360,IDN,.id,0,-
Iran,IRN,IR,IRN,364,IRN,.ir,0,-
Iraq,IRQ,IQ,IRQ,368,IRQ,.iq,0,-
Ireland,IRL,IE,IRL,372,IRL,.ie,0,-
Isle of Man,IMN,IM,IMN,833,UK,.im,0,-
Israel,ISR,IL,ISR,376,ISR,.il,0,-
Italy,ITA,IT,ITA,380,ITA,.it,0,-
Jamaica,JAM,JM,JAM,388,JAM,.jm,0,-
Jan Mayen,XJM,-,-,-,SJM,-,0,-
Japan,JPN,JP,JPN,392,JPN,.jp,0,-
Jarvis Island,XJV,-,-,-,UMI,-,0,-
Jersey,JEY,JE,JEY,832,UK,.je,0,-
Johnston Atoll,XJA,-,-,-,UMI,-,0,-
Jordan,JOR,JO,JOR,400,JOR,.jo,0,-
Juan de Nova Island,XJN,-,-,-,-,-,0,-
Kazakhstan,KAZ,KZ,KAZ,398,KAZ,.kz,0,-
Kenya,KEN,KE,KEN,404,KEN,.ke,0,-
Kingman Reef,XKR,-,-,-,UMI,-,0,-
Kiribati,KIR,KI,KIR,296,KIR,.ki,0,-
"Korea, North",PRK,KP,PRK,408,PRK,.kp,0,-
"Korea, South",KOR,KR,KOR,410,KOR,.kr,0,-
Kosovo,XKS,XK,XKS,-,-,-,0,-
Kuwait,KWT,KW,KWT,414,KWT,.kw,0,-
Kyrgyzstan,KGZ,KG,KGZ,417,KGZ,.kg,0,-
Laos,LAO,LA,LAO,418,LAO,.la,0,-
Latvia,LVA,LV,LVA,428,LVA,.lv,0,-
Lebanon,LBN,LB,LBN,422,LBN,.lb,0,-
Lesotho,LSO,LS,LSO,426,LSO,.ls,0,-
Liberia,LBR,LR,LBR,430,LBR,.lr,0,-
Libya,LBY,LY,LBY,434,LBY,.ly,0,-
Liechtenstein,LIE,LI,LIE,438,LIE,.li,0,-
Lithuania,LTU,LT,LTU,440,LTU,.lt,0,-
Luxembourg,LUX,LU,LUX,442,LUX,.lu,0,-
Macau,MAC,MO,MAC,446,MAC,.mo,0,-
Madagascar,MDG,MG,MDG,450,MDG,.mg,0,-
Malawi,MWI,MW,MWI,454,MWI,.mw,0,-
Malaysia,MYS,MY,MYS,458,MYS,.my,0,-
Maldives,MDV,MV,MDV,462,MDV,.mv,0,-
Mali,MLI,ML,MLI,466,MLI,.ml,0,-
Malta,MLT,MT,MLT,470,MLT,.mt,0,-
Marshall Islands,MHL,MH,MHL,584,MHL,.mh,0,-
Martinique,MTQ,MQ,MTQ,474,MTQ,.mq,0,-
Mauritania,MRT,MR,MRT,478,MRT,.mr,0,-
Mauritius,MUS,MU,MUS,480,MUS,.mu,0,-
Mayotte,MYT,YT,MYT,175,FRA,.yt,0,-
Mexico,MEX,MX,MEX,484,MEX,.mx,0,-
"Micronesia, Federated States of",FSM,FM,FSM,583,FSM,.fm,0,-
Midway Islands,XMW,-,-,-,UMI,-,0,-
Moldova,MDA,MD,MDA,498,MDA,.md,0,-
Monaco,MCO,MC,MCO,492,MCO,.mc,0,-
Mongolia,MNG,MN,MNG,496,MNG,.mn,0,-
Montenegro,MNE,ME,MNE,499,MNE,.me,0,-
Montserrat,MSR,MS,MSR,500,MSR,.ms,0,-
Morocco,MAR,MA,MAR,504,MAR,.ma,0,-
Mozambique,MOZ,MZ,MOZ,508,MOZ,.mz,0,-
Myanmar,-,-,-,-,-,-,0,-
Namibia,NAM,NA,NAM,516,NAM,.na,0,-
Nauru,NRU,NR,NRU,520,NRU,.nr,0,-
Navassa Island,XNV,-,-,-,UMI,-,0,-
Nepal,NPL,NP,NPL,524,NPL,.np,0,-
Netherlands,NLD,NL,NLD,528,NLD,.nl,0,-
New Caledonia,NCL,NC,NCL,540,NCL,.nc,0,-
New Zealand,NZL,NZ,NZL,554,NZL,.nz,0,-
Nicaragua,NIC,NI,NIC,558,NIC,.ni,0,-
Niger,NER,NE,NER,562,NER,.ne,0,-
Nigeria,NGA,NG,NGA,566,NGA,.ng,0,-
Niue,NIU,NU,NIU,570,NIU,.nu,0,-
Norfolk Island,NFK,NF,NFK,574,NFK,.nf,0,-
North Macedonia,MKD,MK,MKD,807,FYR,.mk,0,-
Northern Mariana Islands,MNP,MP,MNP,580,MNP,.mp,0,-
Norway,NOR,NO,NOR,578,NOR,.no,0,-
Oman,OMN,OM,OMN,512,OMN,.om,0,-
Pakistan,PAK,PK,PAK,586,PAK,.pk,0,-
Palau,PLW,PW,PLW,585,PLW,.pw,0,-
Palmyra Atoll,XPL,-,-,-,UMI,-,0,-
Panama,PAN,PA,PAN,591,PAN,.pa,0,-
Papua New Guinea,PNG,PG,PNG,598,PNG,.pg,0,-
Paracel Islands,XPR,-,-,-,-,-,0,-
Paraguay,PRY,PY,PRY,600,PRY,.py,0,-
Peru,PER,PE,PER,604,PER,.pe,0,-
Philippines,PHL,PH,PHL,608,PHL,.ph,0,-
Pitcairn Islands,PCN,PN,PCN,612,PCN,.pn,0,-
Poland,POL,PL,POL,616,POL,.pl,0,-
Portugal,PRT,PT,PRT,620,PRT,.pt,0,-
Puerto Rico,PRI,PR,PRI,630,PRI,.pr,0,-
Qatar,QAT,QA,QAT,634,QAT,.qa,0,-
Reunion,REU,RE,REU,638,REU,.re,0,-
Romania,ROU,RO,ROU,642,ROU,.ro,0,-
Russia,RUS,RU,RUS,643,RUS,.ru,0,-
Rwanda,RWA,RW,RWA,646,RWA,.rw,0,-
Saint Barthelemy,BLM,BL,BLM,652,-,.bl,0,-
"Saint Helena, Ascension, and Tristan da Cunha",SHN,SH,SHN,654,SHN,.sh,0,-
Saint Kitts and Nevis,KNA,KN,KNA,659,KNA,.kn,0,-
Saint Lucia,LCA,LC,LCA,662,LCA,.lc,0,-
Saint Martin,MAF,MF,MAF,663,-,.mf,0,-
Saint Pierre and Miquelon,SPM,PM,SPM,666,SPM,.pm,0,-
Saint Vincent and the Grenadines,VCT,VC,VCT,670,VCT,.vc,0,-
Samoa,WSM,WS,WSM,882,WSM,.ws,0,-
San Marino,SMR,SM,SMR,674,SMR,.sm,0,-
Sao Tome and Principe,STP,ST,STP,678,STP,.st,0,-
Saudi Arabia,SAU,SA,SAU,682,SAU,.sa,0,-
Senegal,SEN,SN,SEN,686,SEN,.sn,0,-
Serbia,SRB,RS,SRB,688,-,.rs,0,-
Seychelles,SYC,SC,SYC,690,SYC,.sc,0,-
Sierra Leone,SLE,SL,SLE,694,SLE,.sl,0,-
Singapore,SGP,SG,SGP,702,SGP,.sg,0,-
Sint Maarten,SXM,SX,SXM,534,-,.sx,0,-
Slovakia,SVK,SK,SVK,703,SVK,.sk,0,-
Slovenia,SVN,SI,SVN,705,SVN,.si,0,-
Solomon Islands,SLB,SB,SLB,90,SLB,.sb,0,-
Somalia,SOM,SO,SOM,706,SOM,.so,0,-
South Africa,ZAF,ZA,ZAF,710,ZAF,.za,0,-
South Georgia and the Islands,SGS,GS,SGS,239,SGS,.gs,0,-
South Sudan,SSD,SS,SSD,728,-,-,0,-
Spain,ESP,ES,ESP,724,ESP,.es,0,-
Spratly Islands,XSP,-,-,-,-,-,0,-
Sri Lanka,LKA,LK,LKA,144,LKA,.lk,0,-
Sudan,SDN,SD,SDN,729,SDN,.sd,0,-
Suriname,SUR,SR,SUR,740,SUR,.sr,0,-
Svalbard,XSV,SJ,SJM,744,SJM,.sj,0,-
Sweden,SWE,SE,SWE,752,SWE,.se,0,-
Switzerland,CHE,CH,CHE,756,CHE,.ch,0,-
Syria,SYR,SY,SYR,760,SYR,.sy,0,-
Taiwan,TWN,TW,TWN,158,TWN,.tw,0,-
Tajikistan,TJK,TJ,TJK,762,TJK,.tj,0,-
Tanzania,TZA,TZ,TZA,834,TZA,.tz,0,-
Thailand,THA,TH,THA,764,THA,.th,0,-
Timor-Leste,TLS,TL,TLS,626,TLS,.tl,0,-
Togo,TGO,TG,TGO,768,TGO,.tg,0,-
Tokelau,TKL,TK,TKL,772,TKL,.tk,0,-
Tonga,TON,TO,TON,776,TON,.to,0,-
Trinidad and Tobago,TTO,TT,TTO,780,TTO,.tt,0,-
Tromelin Island,XTR,-,-,-,-,-,0,-
Tunisia,TUN,TN,TUN,788,TUN,.tn,0,-
Turkey (Turkiye),TUR,TR,TUR,792,TUR,.tr,0,-
Turkmenistan,TKM,TM,TKM,795,TKM,.tm,0,-
Turks and Caicos Islands,TCA,TC,TCA,796,TCA,.tc,0,-
Tuvalu,TUV,TV,TUV,798,TUV,.tv,0,-
Uganda,UGA,UG,UGA,800,UGA,.ug,0,-
Ukraine,UKR,UA,UKR,804,UKR,.ua,0,-
United Arab Emirates,ARE,AE,ARE,784,ARE,.ae,0,-
United Kingdom,GBR,GB,GBR,826,GBR,.uk,0,-
United States,USA,US,USA,840,USA,.us,0,-
United States Minor Outlying Islands,-,UM,UMI,581,-,.um,0,-
Uruguay,URY,UY,URY,858,URY,.uy,0,-
Uzbekistan,UZB,UZ,UZB,860,UZB,.uz,0,-
Vanuatu,VUT,VU,VUT,548,VUT,.vu,0,-
Venezuela,VEN,VE,VEN,862,VEN,.ve,0,-
Vietnam,VNM,VN,VNM,704,VNM,.vn,0,-
Virgin Islands,VIR,VI,VIR,850,VIR,.vi,0,-
Virgin Islands (UK),-,-,-,-,-,.vg,0,-
Virgin Islands (US),-,-,-,-,-,.vi,0,-
Wake Island,XWK,-,-,-,UMI,-,0,-
Wallis and Futuna,WLF,WF,WLF,876,WLF,.wf,0,-
West Bank,XWB,PS,PSE,275,PSE,.ps,0,-
Western Sahara,WI,EH,ESH,732,ESH,.eh,0,-
Western Samoa,-,-,-,-,-,.ws,0,-
World,-,-,-,-,-,-,0,-
Yemen,YEM,YE,YEM,887,YEM,.ye,0,-
Zaire,-,-,-,-,-,-,0,-
Zambia,ZMB,ZM,ZMB,894,ZMB,.zm,0,-
Zimbabwe,ZWE,ZW,ZWE,716,ZWE,.zw,0,-